{
    "app-id" : "org.peertube.PeerTube-Desktop",
    "runtime" : "org.gnome.Sdk",
    "runtime-version" : "3.32",
    "sdk" : "org.gnome.Sdk",
    "command" : "peertube-desktop",
    "finish-args" : [
        "--share=network",
        "--share=ipc",
        "--socket=x11",
        "--socket=wayland",
        "--device=dri",
        "--socket=pulseaudio",
        "--filesystem=xdg-run/dconf",
        "--filesystem=~/.config/dconf:ro",
        "--talk-name=ca.desrt.dconf",
        "--env=DCONF_USER_CONFIG_DIR=.config/dconf"
    ],
    "build-options" : {
        "cflags" : "-O2 -g",
        "cxxflags" : "-O2 -g",
        "env" : {
            "V" : "1"
        }
    },
    "cleanup" : [
        "/include",
        "/lib/pkgconfig",
        "/man",
        "/share/doc",
        "/share/gtk-doc",
        "/share/man",
        "/share/pkgconfig",
        "*.la",
        "*.a"
    ],
    "modules" : [
        {
            "name" : "libhandy",
            "buildsystem" : "meson",
            "config-opts" : [
                "-Dprofiling=false",
                "-Dgtk_doc=false",
                "-Dtests=false",
                "-Dexamples=false",
                "-Dvapi=false",
                "-Dglade_catalog=disabled"
            ],
            "sources" : [
                {
                    "type" : "git",
                    "url" : "https://source.puri.sm/Librem5/libhandy.git"
                }
            ]
        },
        {
            "name" : "python3-PyOpenGL",
            "buildsystem" : "simple",
            "build-commands" : [
                "pip3 install --no-index --find-links=\"file://${PWD}\" --prefix=${FLATPAK_DEST} PyOpenGL"
            ],
            "sources" : [
                {
                    "type" : "file",
                    "url" : "https://files.pythonhosted.org/packages/9c/1d/4544708aaa89f26c97cc09450bb333a23724a320923e74d73e028b3560f9/PyOpenGL-3.1.0.tar.gz",
                    "sha256" : "9b47c5c3a094fa518ca88aeed35ae75834d53e4285512c61879f67a48c94ddaf"
                }
            ]
        },
        {
            "name" : "python3-requests_futures",
            "buildsystem" : "simple",
            "build-commands" : [
                "pip3 install --no-index --find-links=\"file://${PWD}\" --prefix=${FLATPAK_DEST} requests_futures"
            ],
            "sources" : [
                {
                    "type" : "file",
                    "url" : "https://files.pythonhosted.org/packages/c5/67/5d0548226bcc34468e23a0333978f0e23d28d0b3f0c71a151aef9c3f7680/certifi-2019.6.16.tar.gz",
                    "sha256" : "945e3ba63a0b9f577b1395204e13c3a231f9bc0223888be653286534e5873695"
                },
                {
                    "type" : "file",
                    "url" : "https://files.pythonhosted.org/packages/4c/13/2386233f7ee40aa8444b47f7463338f3cbdf00c316627558784e3f542f07/urllib3-1.25.3.tar.gz",
                    "sha256" : "dbe59173209418ae49d485b87d1681aefa36252ee85884c31346debd19463232"
                },
                {
                    "type" : "file",
                    "url" : "https://files.pythonhosted.org/packages/ad/13/eb56951b6f7950cadb579ca166e448ba77f9d24efc03edd7e55fa57d04b7/idna-2.8.tar.gz",
                    "sha256" : "c357b3f628cf53ae2c4c05627ecc484553142ca23264e593d327bcde5e9c3407"
                },
                {
                    "type" : "file",
                    "url" : "https://files.pythonhosted.org/packages/fc/bb/a5768c230f9ddb03acc9ef3f0d4a3cf93462473795d18e9535498c8f929d/chardet-3.0.4.tar.gz",
                    "sha256" : "84ab92ed1c4d4f16916e05906b6b75a6c0fb5db821cc65e70cbd64a3e2a5eaae"
                },
                {
                    "type" : "file",
                    "url" : "https://files.pythonhosted.org/packages/01/62/ddcf76d1d19885e8579acb1b1df26a852b03472c0e46d2b959a714c90608/requests-2.22.0.tar.gz",
                    "sha256" : "11e007a8a2aa0323f5a921e9e6a2d7e4e67d9877e85773fba9ba6419025cbeb4"
                },
                {
                    "type" : "file",
                    "url" : "https://files.pythonhosted.org/packages/47/c4/fd48d1ac5110a5457c71ac7cc4caa93da10a80b8de71112430e439bdee22/requests-futures-1.0.0.tar.gz",
                    "sha256" : "35547502bf1958044716a03a2f47092a89efe8f9789ab0c4c528d9c9c30bc148"
                }
            ]
        },
        {
            "name" : "peertube-desktop",
            "builddir" : true,
            "buildsystem" : "meson",
            "sources" : [
                {
                    "type" : "dir",
                    "path" : "."
                }
            ]
        }
    ]
}
